qPCR chemokines SkM
…
Geometric mean function

gm_mean = function(x, na.rm=TRUE){
  exp(sum(log(x[x > 0]), na.rm=na.rm) / length(x))
}

qpcr <- normalize_hkg(df = qpcr, hkg = c("Rab35", "Rpl13a", "Psma3"))

## # A tibble: 230 x 7
## # Groups:   Sample Name [10]
##    `Sample Name` `Target Name`    CT genotype CT_hkg Delta_ct rel_expr
##    <chr>         <chr>         <dbl> <chr>     <dbl>    <dbl>    <dbl>
##  1 WT1           Tnf            33.3 Healthy    23.0   -10.3     1257.
##  2 WT1           Il1b           34.0 Healthy    23.0   -11.0     2065.
##  3 WT1           Ccl3           40   Healthy    23.0   -17.0   132718.
##  4 WT1           Ccl4           40   Healthy    23.0   -17.0   132718.
##  5 WT1           Ccl5           32.4 Healthy    23.0    -9.45     702.
##  6 WT1           Ccl6           29.7 Healthy    23.0    -6.72     106.
##  7 WT1           Ccl7           34.6 Healthy    23.0   -11.6     3169.
##  8 WT1           Ccl8           30.5 Healthy    23.0    -7.48     179.
##  9 WT1           Ccl9           29.7 Healthy    23.0    -6.70     104.
## 10 WT1           Ccl12          32.3 Healthy    23.0    -9.36     659.
## # ... with 220 more rows
…
