2_Chemokine analysis in cardiac muscle
…
gm_mean function

gm_mean = function(x, na.rm=TRUE){
  exp(sum(log(x[x > 0]), na.rm=na.rm) / length(x))
}

qpcr <- normalize_hkg(df = qpcr, hkg = c("Actb", "Gapdh", "Gusb", "Hsp90ab1"), sample_col = "Sample", target_col = "Gene")

## Joining, by = "Sample"

## # A tibble: 1,170 x 7
## # Groups:   Sample [13]
##    Gene  Genotype Sample    CT CT_hkg Delta_ct   Rel_expr
##    <chr> <chr>    <chr>  <dbl>  <dbl>    <dbl>      <dbl>
##  1 C5ar1 WT       WT_1    26.7   18.9    -7.79 0.00450   
##  2 Ackr2 WT       WT_1    29.0   18.9   -10.1  0.000882  
##  3 Ccl1  WT       WT_1    37.1   18.9   -18.3  0.00000314
##  4 Ccl11 WT       WT_1    27.8   18.9    -8.96 0.00201   
##  5 Ccl12 WT       WT_1    25.5   18.9    -6.68 0.00976   
##  6 Ccl17 WT       WT_1    30.8   18.9   -11.9  0.000262  
##  7 Ccl19 WT       WT_1    26.4   18.9    -7.56 0.00531   
##  8 Ccl2  WT       WT_1    25.0   18.9    -6.13 0.0143    
##  9 Ccl20 WT       WT_1    35     18.9   -16.1  0.0000139 
## 10 Ccl22 WT       WT_1    32.0   18.9   -13.1  0.000110  
## # ... with 1,160 more rows
…
df <- df %>%
  select(-(Brag_delta_ct_avg:WT_delta_ct_semperc)) %>%
  gather(key = variable, value = value, -Gene) %>%
  tidyr::separate(col = variable, into = c("g1", "g2", "g3", "v1", "v2", "v3")) %>%
  unite(g1, g2, g3, col = "genotype") %>%
  unite(v1, v2, v3, col = "temp") %>%
  spread(key = temp, value = value)

Calculate ymin and ymax

df %>%
  mutate(ylower = fold_change_avg - fold_change_sem,
         yupper = fold_change_avg + fold_change_sem)

## # A tibble: 420 x 6
##    Gene  genotype     fold_change_avg fold_change_sem ylower yupper
##    <chr> <chr>                  <dbl>           <dbl>  <dbl>  <dbl>
##  1 Ackr2 Brag_vs_Sgcb           0.847          0.0619  0.785  0.909
##  2 Ackr2 Brag_vs_WT             1.82           0.0769  1.74   1.90 
##  3 Ackr2 Sgca_vs_WT             1.99           0.0719  1.92   2.06 
##  4 Ackr2 Sgcb_vs_Sgca           1.08           0.0753  1.00   1.15 
##  5 Ackr2 Sgcb_vs_WT             2.15           0.161   1.99   2.31 
##  6 Ackr3 Brag_vs_Sgcb           0.975          0.0736  0.901  1.05 
##  7 Ackr3 Brag_vs_WT             0.985          0.0781  0.907  1.06 
##  8 Ackr3 Sgca_vs_WT             0.689          0.0412  0.648  0.731
##  9 Ackr3 Sgcb_vs_Sgca           1.47           0.0803  1.39   1.55 
## 10 Ackr3 Sgcb_vs_WT             1.01           0.0622  0.949  1.07 
## # ... with 410 more rows
…
